{
    "realm": "universe",
    "auth-server-url": "http://localhost:8090/auth",
    "ssl-required": "external",
    "resource": "app1",
    "credentials": {
        "secret": "43332932-136e-4a70-bf50-76b24f64555b"
    },
    "confidential-port": 0
}